<?xml version="1.0" encoding="UTF-8"?>
<svg width="16px" height="16px" viewBox="0 0 16 16" version="1.1" xmlns="http://www.w3.org/2000/svg" xmlns:xlink="http://www.w3.org/1999/xlink">
    <!-- Generator: Sketch 48.2 (47327) - http://www.bohemiancoding.com/sketch -->
    <title>icon/16px/comment-16px</title>
    <desc>Created with Sketch.</desc>
    <defs>
        <path d="M2.5531879,7.6193923 C2.5531879,5.25720938 4.99557586,3.33491879 7.99788806,3.33491879 C10.9994237,3.33491879 13.4418116,5.25720938 13.4418116,7.6193923 C13.4418116,9.98157522 10.9994237,11.9038658 7.99788806,11.9038658 C4.99557586,11.9038658 2.5531879,9.98157522 2.5531879,7.6193923 L2.5531879,7.6193923 Z M14.0910442,13.6610994 L14.0910442,13.6603209 L14.0910442,13.6595423 C14.0910442,13.6595423 12.8756746,11.9023087 13.4953966,11.2366309 L13.4666626,11.2522023 C14.42032,10.2540749 14.9949995,8.99201211 14.9949995,7.6193923 C14.9949995,4.39844611 11.8560068,1.77777778 7.99788806,1.77777778 C4.13899274,1.77777778 1,4.39844611 1,7.6193923 C1,10.8403385 4.13899274,13.4610068 7.99788806,13.4610068 C9.10220465,13.4610068 10.1436171,13.2398928 11.0739767,12.8576147 C11.853677,13.6525352 12.8523768,14.0799704 13.5924709,14.1944202 L13.5948006,14.1920845 C13.6351835,14.2053202 13.6771196,14.2177774 13.722162,14.2177774 C13.9434913,14.2177774 14.1221079,14.0379276 14.1221079,13.816035 C14.1221079,13.7607565 14.1112356,13.7085922 14.0910442,13.6610994 Z" id="path-1"></path>
    </defs>
    <g id="Symbols" stroke="none" stroke-width="1" fill="none" fill-rule="evenodd">
        <g id="icon/16px/comment">
            <mask id="mask-2" fill="white">
                <use xlink:href="#path-1"></use>
            </mask>
            <use id="comment" fill="#3F4F71" xlink:href="#path-1"></use>
        </g>
    </g>
</svg>