<?xml version="1.0" encoding="UTF-8"?>
<svg width="16px" height="16px" viewBox="0 0 16 16" version="1.1" xmlns="http://www.w3.org/2000/svg" xmlns:xlink="http://www.w3.org/1999/xlink">
    <!-- Generator: Sketch 48.2 (47327) - http://www.bohemiancoding.com/sketch -->
    <title>bitbucket/16px/commits-16px</title>
    <desc>Created with Sketch.</desc>
    <defs>
        <path d="M8,9 C7.448,9 7,8.552 7,8 C7,7.448 7.448,7 8,7 C8.552,7 9,7.448 9,8 C9,8.552 8.552,9 8,9 M8,11 C7.82,11 7.646,10.98 7.476,10.947 C7.646,10.978 7.82,11 8,11 C8.18,11 8.354,10.978 8.525,10.947 C8.354,10.98 8.18,11 8,11 M8,5 C8.18,5 8.354,5.02 8.525,5.053 C8.354,5.022 8.18,5 8,5 C7.82,5 7.646,5.022 7.475,5.053 C7.646,5.02 7.82,5 8,5 M11,8 C11,6.698 10.161,5.599 9,5.185 L9,2 C9,1.447 8.553,1 8,1 C7.447,1 7,1.447 7,2 L7,5.185 C5.839,5.599 5,6.698 5,8 C5,9.302 5.839,10.401 7,10.815 L7,14 C7,14.553 7.447,15 8,15 C8.553,15 9,14.553 9,14 L9,10.815 C10.161,10.402 11,9.302 11,8" id="path-1"></path>
    </defs>
    <g id="Symbols" stroke="none" stroke-width="1" fill="none" fill-rule="evenodd">
        <g id="bitbucket/16px/commits">
            <mask id="mask-2" fill="white">
                <use xlink:href="#path-1"></use>
            </mask>
            <use id="commits" fill="#42526E" xlink:href="#path-1"></use>
        </g>
    </g>
</svg>