<?xml version="1.0" encoding="UTF-8"?>
<svg width="16px" height="16px" viewBox="0 0 16 16" version="1.1" xmlns="http://www.w3.org/2000/svg" xmlns:xlink="http://www.w3.org/1999/xlink">
    <!-- Generator: Sketch 48.2 (47327) - http://www.bohemiancoding.com/sketch -->
    <title>icon/16px/decision-16px</title>
    <desc>Created with Sketch.</desc>
    <defs>
        <path d="M3.83187168,2.79113818 L8.0327026,6.9919691 C8.41940958,7.37867608 8.73590972,8.13958513 8.73590972,8.68779131 L8.73590972,13.6305723 C8.73590972,14.1686213 8.28545151,14.6231874 7.72978315,14.6231874 L8.27021685,14.6231874 C7.71368204,14.6231874 7.26409028,14.1749513 7.26409028,13.6220239 L7.26409028,8.30482378 L2.79434761,3.83508111 L2.7995841,5.08567184 C2.80121132,5.47428869 2.48678167,5.79064103 2.09728582,5.79226458 C1.70778996,5.79388813 1.39072206,5.48016808 1.38909484,5.09155124 L1.37681256,2.14477479 C1.38042258,1.72007149 1.72624395,1.37503057 2.15541299,1.37681949 L5.08996628,1.38905169 C5.47946214,1.39067524 5.79389179,1.70702758 5.79226457,2.09564443 C5.79063734,2.48426127 5.47356944,2.79798132 5.08407359,2.79635777 L3.83187168,2.79113818 Z M13.366911,1.59235553 C13.6543016,1.30496491 14.1202539,1.30496491 14.4076445,1.59235553 C14.6950351,1.87974615 14.6950351,2.34569841 14.4076445,2.63308903 L10.7280959,6.3126376 C10.4407053,6.60002822 9.97475302,6.60002822 9.6873624,6.3126376 C9.39997178,6.02524698 9.39997178,5.55929472 9.6873624,5.2719041 L13.366911,1.59235553 Z" id="path-1"></path>
    </defs>
    <g id="Symbols" stroke="none" stroke-width="1" fill="none" fill-rule="evenodd">
        <g id="icon/16px/decision">
            <mask id="mask-2" fill="white">
                <use xlink:href="#path-1"></use>
            </mask>
            <use id="Combined-Shape" fill="#42526E" fill-rule="nonzero" xlink:href="#path-1"></use>
        </g>
    </g>
</svg>