<?xml version="1.0" encoding="UTF-8"?>
<svg width="16px" height="16px" viewBox="0 0 16 16" version="1.1" xmlns="http://www.w3.org/2000/svg" xmlns:xlink="http://www.w3.org/1999/xlink">
    <!-- Generator: Sketch 48.2 (47327) - http://www.bohemiancoding.com/sketch -->
    <title>confluence/16px/Gallery</title>
    <desc>Created with Sketch.</desc>
    <defs>
        <path d="M4.11565234,5.13822473 C4.11565234,4.48456758 4.64518481,3.95467377 5.29920331,3.95467377 L13.6102788,3.95467377 C14.2639359,3.95467377 14.7938298,4.48420624 14.7938298,5.13822473 L14.7938298,13.4493002 C14.7938298,14.1029574 14.2642973,14.6328512 13.6102788,14.6328512 L5.29920331,14.6328512 C4.64554615,14.6328512 4.11565234,14.1033187 4.11565234,13.4493002 L4.11565234,5.13822473 Z M7.08181273,8.10729832 C7.73707879,8.10729832 8.26827689,7.57610022 8.26827689,6.92083416 C8.26827689,6.2655681 7.73707879,5.73437 7.08181273,5.73437 C6.42654667,5.73437 5.89534857,6.2655681 5.89534857,6.92083416 C5.89534857,7.57610022 6.42654667,8.10729832 7.08181273,8.10729832 Z M8.56489293,11.9633068 L7.67504481,11.0734587 L5.89534857,12.853155 L13.0141335,12.853155 L13.0141335,11.2514281 L11.2344373,9.29376248 L8.56489293,11.9633068 Z M3.01144622,13.4935856 L2.3950221,13.4935856 C1.73843735,13.4935856 1.20617023,12.956881 1.20617023,12.3087726 L1.20617023,2.55196185 C1.20617023,1.89760767 1.73307481,1.3671488 2.3950221,1.3671488 L12.6542502,1.3671488 C13.310835,1.3671488 13.8431021,1.90385346 13.8431021,2.55196185 L13.8431021,3.09949692 L3.60452277,3.09949692 C3.27444626,3.09949692 3.01144622,3.36610897 3.01144622,3.69499159 L3.01144622,13.4935856 Z" id="path-1"></path>
    </defs>
    <g id="Editor-icons" stroke="none" stroke-width="1" fill="none" fill-rule="evenodd">
        <g id="confluence/16px/Gallery">
            <mask id="mask-2" fill="white">
                <use xlink:href="#path-1"></use>
            </mask>
            <use id="Combined-Shape" fill="#3F4F71" xlink:href="#path-1"></use>
        </g>
    </g>
</svg>