<?xml version="1.0" encoding="UTF-8"?>
<svg width="16px" height="16px" viewBox="0 0 16 16" version="1.1" xmlns="http://www.w3.org/2000/svg" xmlns:xlink="http://www.w3.org/1999/xlink">
    <!-- Generator: Sketch 48.2 (47327) - http://www.bohemiancoding.com/sketch -->
    <title>icon/16px/needs-work-16px</title>
    <desc>Created with Sketch.</desc>
    <defs>
        <path d="M8,14.9991455 C4.13447867,14.9991455 1.00085449,11.8655213 1.00085449,8 C1.00085449,4.13447867 4.13447867,1.00085449 8,1.00085449 C11.8655213,1.00085449 14.9991455,4.13447867 14.9991455,8 C14.9991455,11.8655213 11.8655213,14.9991455 8,14.9991455 Z M7.1142944,5.35536701 C6.64055687,4.88162948 5.85185516,4.87876853 5.36716331,5.36346038 C4.87909227,5.85153141 4.87884793,6.63036947 5.35906994,7.11059148 L8.8857056,10.6372271 C9.35944313,11.1109647 10.1481448,11.1138256 10.6328367,10.6291338 C11.1209077,10.1410627 11.1211521,9.36222468 10.6409301,8.88200267 L7.1142944,5.35536701 Z" id="path-1"></path>
    </defs>
    <g id="Symbols" stroke="none" stroke-width="1" fill="none" fill-rule="evenodd">
        <g id="icon/16px/needs-work">
            <mask id="mask-2" fill="white">
                <use xlink:href="#path-1"></use>
            </mask>
            <use id="needs-work" fill="#3F4F71" xlink:href="#path-1"></use>
        </g>
    </g>
</svg>