<?xml version="1.0" encoding="UTF-8"?>
<svg width="16px" height="16px" viewBox="0 0 16 16" version="1.1" xmlns="http://www.w3.org/2000/svg" xmlns:xlink="http://www.w3.org/1999/xlink">
    <!-- Generator: Sketch 48.1 (47250) - http://www.bohemiancoding.com/sketch -->
    <title>icon/16px/progress</title>
    <desc>Created with Sketch.</desc>
    <defs>
        <path d="M7.77457684,12.8555095 C4.9724425,12.8555095 2.69364421,10.5767112 2.69364421,7.77457684 C2.69364421,4.9724425 4.9724425,2.69364421 7.77457684,2.69364421 L7.77457684,7.77457684 L11.3659494,11.3659494 C10.4454538,12.2855982 9.17522061,12.8555095 7.77457684,12.8555095 M7.77457684,1 C4.03331678,1 1,4.03331678 1,7.77457684 C1,11.5158369 4.03331678,14.5491537 7.77457684,14.5491537 C11.282114,14.5491537 14.1672369,11.8833577 14.514434,8.46727733 C14.5372982,8.23948218 14.5491537,8.00829975 14.5491537,7.77457684 C14.5491537,4.03331678 11.5158369,1 7.77457684,1" id="path-1"></path>
    </defs>
    <g id="Symbols" stroke="none" stroke-width="1" fill="none" fill-rule="evenodd">
        <g id="icon/16px/progress">
            <mask id="mask-2" fill="white">
                <use xlink:href="#path-1"></use>
            </mask>
            <use id="progress" fill="#42526E" xlink:href="#path-1"></use>
        </g>
    </g>
</svg>