<?xml version="1.0" encoding="UTF-8"?>
<svg width="16px" height="16px" viewBox="0 0 16 16" version="1.1" xmlns="http://www.w3.org/2000/svg" xmlns:xlink="http://www.w3.org/1999/xlink">
    <!-- Generator: Sketch 48.2 (47327) - http://www.bohemiancoding.com/sketch -->
    <title>bitbucket/16px/submodule</title>
    <desc>Created with Sketch.</desc>
    <defs>
        <path d="M14.5,10 L12.875,10 L12.296,9.341 C12.105,9.124 11.832,9 11.544,9 L9.5,9 C8.95,9 8.5,9.45 8.5,10 L8.5,14 C8.5,14.55 8.95,15 9.5,15 L14.5,15 C15.05,15 15.5,14.55 15.5,14 L15.5,11 C15.5,10.45 15.05,10 14.5,10 Z M9.5,8 C8.397,8 7.5,8.897 7.5,10 L7.5,14 L2.5,14 C1.4,14 0.5,13.1 0.5,12 L0.5,4 C0.5,2.9 1.4,2 2.5,2 L6.588,2 C7.164,2 7.711,2.248 8.091,2.681 L9.25,4 L12.5,4 C13.6,4 14.5,4.9 14.5,6 L14.5,9 L13.327,9 L13.047,8.681 C12.668,8.248 12.119,8 11.544,8 L9.5,8 Z" id="path-1"></path>
    </defs>
    <g id="Symbols" stroke="none" stroke-width="1" fill="none" fill-rule="evenodd">
        <g id="bitbucket/16px/submodule">
            <mask id="mask-2" fill="white">
                <use xlink:href="#path-1"></use>
            </mask>
            <use id="submodule" fill="#505F79" xlink:href="#path-1"></use>
        </g>
    </g>
</svg>