<?xml version="1.0" encoding="UTF-8"?>
<svg width="16px" height="16px" viewBox="0 0 16 16" version="1.1" xmlns="http://www.w3.org/2000/svg" xmlns:xlink="http://www.w3.org/1999/xlink">
    <!-- Generator: Sketch 48.2 (47327) - http://www.bohemiancoding.com/sketch -->
    <title>confluence/16px/team calendar</title>
    <desc>Created with Sketch.</desc>
    <defs></defs>
    <g id="Editor-icons" stroke="none" stroke-width="1" fill="none" fill-rule="evenodd">
        <g id="confluence/16px/team-calendar">
            <g id="Group" transform="translate(0.500000, 1.000000)">
                <path d="M4.69984838,8.90342063 C5.43974851,9.74387202 6.42416788,10.1640977 7.65310648,10.1640977 C8.88204508,10.1640977 9.86302071,9.74387202 10.5960334,8.90342063" id="Path-Copy" stroke="#3F4F71" stroke-width="2" stroke-linecap="round"></path>
                <path d="M11.6479409,1 L12.6479409,1 C13.7479409,1 14.6479409,1.9 14.6479409,3 L14.6479409,12 C14.6479409,13.1 13.7479409,14 12.6479409,14 L2.64794087,14 C1.54794087,14 0.647940875,13.1 0.647940875,12 L0.647940875,3 C0.647940875,1.9 1.54794087,1 2.64794087,1 L3.64794087,1 C3.64794087,0.45 4.09794087,0 4.64794087,0 C5.19794087,0 5.64794087,0.45 5.64794087,1 L9.64794087,1 C9.64794087,0.45 10.0979409,0 10.6479409,0 C11.1979409,0 11.6479409,0.45 11.6479409,1 Z M2.64794087,12 L12.6479409,12 L12.6479409,4 L2.64794087,4 L2.64794087,12 Z" id="Combined-Shape" fill="#42526E"></path>
            </g>
        </g>
    </g>
</svg>