<?xml version="1.0" encoding="UTF-8"?>
<svg width="16px" height="16px" viewBox="0 0 16 16" version="1.1" xmlns="http://www.w3.org/2000/svg" xmlns:xlink="http://www.w3.org/1999/xlink">
    <!-- Generator: Sketch 48.2 (47327) - http://www.bohemiancoding.com/sketch -->
    <title>icon/16px/vid-full-connection-circle-16px</title>
    <desc>Created with Sketch.</desc>
    <defs>
        <path d="M8,15 C4.13400675,15 1,11.8659932 1,8 C1,4.13400675 4.13400675,1 8,1 C11.8659932,1 15,4.13400675 15,8 C15,11.8659932 11.8659932,15 8,15 Z M9.4,5.90924387 L9.4,10.0907561 C9.4,10.4828746 9.71340068,10.8 10.1,10.8 C10.4892946,10.8 10.8,10.4824607 10.8,10.0907561 L10.8,5.90924387 C10.8,5.51712542 10.4865993,5.2 10.1,5.2 C9.71070538,5.2 9.4,5.5175393 9.4,5.90924387 Z M7.3,7.29354458 L7.3,10.1064554 C7.3,10.4843174 7.61340068,10.8 8,10.8 C8.38929462,10.8 8.7,10.4894895 8.7,10.1064554 L8.7,7.29354458 C8.7,6.91568263 8.38659932,6.6 8,6.6 C7.61070538,6.6 7.3,6.91051048 7.3,7.29354458 Z M5.2,9.39926959 L5.2,10.1007304 C5.2,10.4901378 5.51340068,10.8 5.9,10.8 C6.28929462,10.8 6.6,10.4869263 6.6,10.1007304 L6.6,9.39926959 C6.6,9.00986223 6.28659932,8.7 5.9,8.7 C5.51070538,8.7 5.2,9.01307366 5.2,9.39926959 Z" id="path-1"></path>
    </defs>
    <g id="Symbols" stroke="none" stroke-width="1" fill="none" fill-rule="evenodd">
        <g id="icon/16px/vid-full-connection-circle">
            <mask id="mask-2" fill="white">
                <use xlink:href="#path-1"></use>
            </mask>
            <use id="Combined-Shape" fill="#42526E" xlink:href="#path-1"></use>
        </g>
    </g>
</svg>