<?xml version="1.0" encoding="UTF-8"?>
<svg width="16px" height="16px" viewBox="0 0 16 16" version="1.1" xmlns="http://www.w3.org/2000/svg" xmlns:xlink="http://www.w3.org/1999/xlink">
    <!-- Generator: Sketch 48.2 (47327) - http://www.bohemiancoding.com/sketch -->
    <title>icon/16px/vid-backward-16px</title>
    <desc>Created with Sketch.</desc>
    <defs>
        <path d="M8.75520543,6.68121977 L14.2293884,2.08999099 C14.3355631,2.00063913 14.4352812,1.95835655 14.5206513,1.95835655 C14.6856525,1.95835655 14.7968489,2.11950902 14.7968489,2.41229593 L14.7968489,13.5796833 C14.7968489,14.0208581 14.5342819,14.1740327 14.2035622,13.9163483 L8.75520543,9.67377423 L8.75520543,13.5796833 C8.75520543,14.0208581 8.49263841,14.1740327 8.16191874,13.9163483 L1.45641603,8.69484882 C1.12928335,8.43955779 1.11708761,8.01992314 1.43130717,7.75665426 L8.187745,2.08999099 C8.29391965,2.00063913 8.39363772,1.95835655 8.47900788,1.95835655 C8.64400901,1.95835655 8.75520543,2.11950902 8.75520543,2.41229593 L8.75520543,6.68121977 Z" id="path-1"></path>
    </defs>
    <g id="Symbols" stroke="none" stroke-width="1" fill="none" fill-rule="evenodd">
        <g id="icon/16px/vid-backward">
            <mask id="mask-2" fill="white">
                <use xlink:href="#path-1"></use>
            </mask>
            <use id="Combined-Shape" fill="#42526E" xlink:href="#path-1"></use>
        </g>
    </g>
</svg>