<?xml version="1.0" encoding="UTF-8"?>
<svg width="24px" height="24px" viewBox="0 0 24 24" version="1.1" xmlns="http://www.w3.org/2000/svg" xmlns:xlink="http://www.w3.org/1999/xlink">
    <!-- Generator: Sketch 48.1 (47250) - http://www.bohemiancoding.com/sketch -->
    <title>icon/20px/cross-circle</title>
    <desc>Created with Sketch.</desc>
    <defs>
        <path d="M13.4127981,12.0138248 L14.8949914,10.5227004 C15.2843409,10.1310048 15.282439,9.49784266 14.8907434,9.10849317 C14.4990479,8.71914368 13.8658858,8.72104555 13.4765363,9.11274112 L12.0015689,10.5965961 L10.5014961,9.09014593 C10.111801,8.69879415 9.47863748,8.69745111 9.0872857,9.08714616 C8.69593392,9.4768412 8.69459088,10.1100048 9.08428593,10.5013565 L10.5915912,12.0150698 L9.11693012,13.4986167 C8.72758063,13.8903122 8.7294825,14.5234743 9.12117807,14.9128238 C9.51287364,15.3021733 10.1460358,15.3002715 10.5353853,14.9085759 L12.0028203,13.4322986 L13.4424471,14.8780457 C13.8321421,15.2693975 14.4653057,15.2707406 14.8566575,14.8810455 C15.2480092,14.4913505 15.2493523,13.8581869 14.8596572,13.4668351 L13.4127981,12.0138248 Z M12,22 C6.4771525,22 2,17.5228475 2,12 C2,6.4771525 6.4771525,2 12,2 C17.5228475,2 22,6.4771525 22,12 C22,17.5228475 17.5228475,22 12,22 Z" id="path-1"></path>
    </defs>
    <g id="Symbols" stroke="none" stroke-width="1" fill="none" fill-rule="evenodd">
        <g id="icon/20px/cross-circle">
            <mask id="mask-2" fill="white">
                <use xlink:href="#path-1"></use>
            </mask>
            <use id="cross-circle" fill="#3F4F71" xlink:href="#path-1"></use>
        </g>
    </g>
</svg>