<?xml version="1.0" encoding="UTF-8"?>
<svg width="24px" height="24px" viewBox="0 0 24 24" version="1.1" xmlns="http://www.w3.org/2000/svg" xmlns:xlink="http://www.w3.org/1999/xlink">
    <!-- Generator: Sketch 48.1 (47250) - http://www.bohemiancoding.com/sketch -->
    <title>bamboo/20px/incomplete-build</title>
    <desc>Created with Sketch.</desc>
    <defs>
        <path d="M14.6328,9.3633 C15.1178,9.8483 15.1148,10.6363 14.6408,11.1103 L11.1138,14.6373 C10.6338,15.1173 9.8558,15.1173 9.3668,14.6293 C8.8828,14.1443 8.8848,13.3553 9.3598,12.8823 L12.8858,9.3553 C13.3658,8.8753 14.1448,8.8753 14.6328,9.3633 M11.9998,18.0003 C8.6918,18.0003 5.9998,15.3083 5.9998,12.0003 C5.9998,8.6913 8.6918,6.0003 11.9998,6.0003 C15.3088,6.0003 17.9998,8.6913 17.9998,12.0003 C17.9998,15.3083 15.3088,18.0003 11.9998,18.0003 M11.9998,4.0003 C7.5818,4.0003 3.9998,7.5813 3.9998,12.0003 C3.9998,16.4183 7.5818,20.0003 11.9998,20.0003 C16.4188,20.0003 19.9998,16.4183 19.9998,12.0003 C19.9998,7.5813 16.4188,4.0003 11.9998,4.0003" id="path-1"></path>
    </defs>
    <g id="Symbols" stroke="none" stroke-width="1" fill="none" fill-rule="evenodd">
        <g id="bamboo/20px/incomplete-build">
            <mask id="mask-2" fill="white">
                <use xlink:href="#path-1"></use>
            </mask>
            <use id="incomplete-build" fill="#172B4D" xlink:href="#path-1"></use>
        </g>
    </g>
</svg>