<?xml version="1.0" encoding="UTF-8"?>
<svg width="24px" height="24px" viewBox="0 0 24 24" version="1.1" xmlns="http://www.w3.org/2000/svg" xmlns:xlink="http://www.w3.org/1999/xlink">
    <!-- Generator: Sketch 48.1 (47250) - http://www.bohemiancoding.com/sketch -->
    <title>icon/20px/person</title>
    <desc>Created with Sketch.</desc>
    <defs>
        <path d="M6,14.0001103 C6,12.8954799 6.90195036,12 8.0085302,12 L15.9914698,12 C17.1007504,12 18,12.8938878 18,14.006104 L18,18.4460997 C18,21.8513001 6,21.8513001 6,18.4460997 C6,21.8513001 6,14.0001103 6,14.0001103 Z M12,11 C9.790861,11 8,9.209139 8,7 C8,4.790861 9.790861,3 12,3 C14.209139,3 16,4.790861 16,7 C16,9.209139 14.209139,11 12,11 Z" id="path-1"></path>
    </defs>
    <g id="Symbols" stroke="none" stroke-width="1" fill="none" fill-rule="evenodd">
        <g id="icon/20px/person">
            <mask id="mask-2" fill="white">
                <use xlink:href="#path-1"></use>
            </mask>
            <use id="Combined-Shape" fill="#122652" xlink:href="#path-1"></use>
        </g>
    </g>
</svg>