<?xml version="1.0" encoding="UTF-8"?>
<svg width="24px" height="24px" viewBox="0 0 24 24" version="1.1" xmlns="http://www.w3.org/2000/svg" xmlns:xlink="http://www.w3.org/1999/xlink">
    <!-- Generator: Sketch 48.1 (47250) - http://www.bohemiancoding.com/sketch -->
    <title>icon/20px/preferences</title>
    <desc>Created with Sketch.</desc>
    <defs>
        <path d="M13.1660395,15.0130054 C13.5740356,13.8408356 14.6885229,13 16,13 C17.3116127,13 18.4261949,13.8410095 18.834087,15.013369 C18.8876559,15.0045745 18.9427257,15 18.9989566,15 L20.0010434,15 C20.5527519,15 21,15.4438648 21,16 C21,16.5522847 20.5573397,17 20.0010434,17 L18.9989566,17 C18.9428062,17 18.8877378,16.9954023 18.8341129,16.9865566 C18.4262421,18.1589549 17.3116405,19 16,19 C14.6884987,19 13.5739946,18.1591334 13.166017,16.9869299 C13.1134352,16.9955292 13.0594576,17 13.0044225,17 L3.9955775,17 C3.44573523,17 3,16.5561352 3,16 C3,15.4477153 3.44483697,15 3.9955775,15 L13.0044225,15 C13.0594518,15 13.1134383,15.0044459 13.1660395,15.0130054 Z M5.16588712,7.01344341 C5.57375791,5.8410451 6.68835951,5 8,5 C9.31150126,5 10.4260054,5.84086655 10.833983,7.01307006 C10.8865648,7.00447083 10.9405424,7 10.9955775,7 L20.0044225,7 C20.5542648,7 21,7.44386482 21,8 C21,8.55228475 20.555163,9 20.0044225,9 L10.9955775,9 C10.9405482,9 10.8865617,8.99555407 10.8339605,8.98699463 C10.4259644,10.1591644 9.31147713,11 8,11 C6.68838727,11 5.5738051,10.1589905 5.16591302,8.98663104 C5.11234409,8.99542555 5.05727429,9 5.00104344,9 L3.99895656,9 C3.44724809,9 3,8.55613518 3,8 C3,7.44771525 3.44266033,7 3.99895656,7 L5.00104344,7 C5.05719382,7 5.11226217,7.00459766 5.16588712,7.01344341 Z M9,8 C9,7.44728475 8.55271525,7 8,7 C7.44728475,7 7,7.44728475 7,8 C7,8.55271525 7.44728475,9 8,9 C8.55271525,9 9,8.55271525 9,8 Z M17,16 C17,15.4472847 16.5527153,15 16,15 C15.4472847,15 15,15.4472847 15,16 C15,16.5527153 15.4472847,17 16,17 C16.5527153,17 17,16.5527153 17,16 Z" id="path-1"></path>
    </defs>
    <g id="Symbols" stroke="none" stroke-width="1" fill="none" fill-rule="evenodd">
        <g id="icon/20px/preferences">
            <mask id="mask-2" fill="white">
                <use xlink:href="#path-1"></use>
            </mask>
            <use id="Combined-Shape" fill="#405070" xlink:href="#path-1"></use>
        </g>
    </g>
</svg>